<?xml version="1.0" encoding="utf-8"?>
<!-- Generator: Adobe Illustrator 22.1.0, SVG Export Plug-In . SVG Version: 6.00 Build 0)  -->
<svg version="1.1" id="Layer_1" xmlns="http://www.w3.org/2000/svg" xmlns:xlink="http://www.w3.org/1999/xlink" x="0px" y="0px"
	 viewBox="0 0 102 12.6" style="enable-background:new 0 0 102 12.6;" xml:space="preserve">
<style type="text/css">
	.st0{fill:#00A2C5;}
</style>
<g>
	<path class="st0" d="M85,11.5c-5,0-7.6-2.3-9.8-4.3C73.2,5.4,71.5,4,68,4s-5.1,1.4-7.2,3.3c-2.3,2-4.8,4.3-9.8,4.3
		s-7.6-2.3-9.8-4.3C39.1,5.4,37.5,4,34,4s-5.1,1.4-7.2,3.3c-2.3,2-4.8,4.3-9.8,4.3S9.4,9.2,7.2,7.3C5.1,5.4,3.5,4,0,4V0
		c5,0,7.6,2.3,9.8,4.3c2.1,1.8,3.7,3.3,7.2,3.3s5.1-1.4,7.2-3.3C26.4,2.3,29,0,34,0s7.6,2.3,9.8,4.3c2.1,1.8,3.7,3.3,7.2,3.3
		s5.1-1.4,7.2-3.3C60.5,2.3,63,0,68,0s7.6,2.3,9.8,4.3c2.1,1.8,3.7,3.3,7.2,3.3c3.5,0,5.1-1.4,7.2-3.3C94.5,2.3,97,0,102,0v4
		c-3.5,0-5.1,1.4-7.2,3.3C92.6,9.2,90,11.5,85,11.5z"/>
</g>
</svg>
